[
  {
    "Id": 1,
    "Title": "Mrs",
    "Description": "Proin leo odio, porttitor id, consequat in, consequat ut, nulla. Sed accumsan felis. Ut at dolor quis odio consequat varius.",
    "PublicationYear": 376,
    "Director": "Chester Leinthall",
    "Country": "Russia",
    "Genre": "Horror",
    "Reviews": [
      {
        "Id": 1,
        "Title": "Ms",
        "Description": "Duis bibendum. Morbi non quam nec dui luctus rutrum. Nulla tellus.",
        "Rating": 3
      },
      {
        "Id": 2,
        "Title": "Dr",
        "Description": "Mauris enim leo, rhoncus sed, vestibulum sit amet, cursus id, turpis. Integer aliquet, massa id lobortis convallis, tortor risus dapibus augue, vel accumsan tellus nisi eu orci. Mauris lacinia sapien quis libero.",
        "Rating": 4
      },
      {
        "Id": 3,
        "Title": "Rev",
        "Description": "Cras mi pede, malesuada in, imperdiet et, commodo vulputate, justo. In blandit ultrices enim. Lorem ipsum dolor sit amet, consectetuer adipiscing elit.",
        "Rating": 3
      },
      {
        "Id": 4,
        "Title": "Mrs",
        "Description": "Curabitur at ipsum ac tellus semper interdum. Mauris ullamcorper purus sit amet nulla. Quisque arcu libero, rutrum ac, lobortis vel, dapibus at, diam.",
        "Rating": 1
      },
      {
        "Id": 5,
        "Title": "Ms",
        "Description": "In hac habitasse platea dictumst. Etiam faucibus cursus urna. Ut tellus.",
        "Rating": 5
      }
    ]
  },
  {
    "Id": 2,
    "Title": "Honorable",
    "Description": "Proin interdum mauris non ligula pellentesque ultrices. Phasellus id sapien in sapien iaculis congue. Vivamus metus arcu, adipiscing molestie, hendrerit at, vulputate vitae, nisl.",
    "PublicationYear": 52,
    "Director": "Rois Vidineev",
    "Country": "Indonesia",
    "Genre": "Fantasy",
    "Reviews": [
      {
        "Id": 1,
        "Title": "Mrs",
        "Description": "Aenean fermentum. Donec ut mauris eget massa tempor convallis. Nulla neque libero, convallis eget, eleifend luctus, ultricies eu, nibh.",
        "Rating": 4
      },
      {
        "Id": 2,
        "Title": "Ms",
        "Description": "Phasellus in felis. Donec semper sapien a libero. Nam dui.",
        "Rating": 5
      },
      {
        "Id": 3,
        "Title": "Mrs",
        "Description": "Morbi porttitor lorem id ligula. Suspendisse ornare consequat lectus. In est risus, auctor sed, tristique in, tempus sit amet, sem.",
        "Rating": 4
      },
      {
        "Id": 4,
        "Title": "Mrs",
        "Description": "In hac habitasse platea dictumst. Etiam faucibus cursus urna. Ut tellus.",
        "Rating": 4
      },
      {
        "Id": 5,
        "Title": "Mr",
        "Description": "Vestibulum quam sapien, varius ut, blandit non, interdum in, ante. Vestibulum ante ipsum primis in faucibus orci luctus et ultrices posuere cubilia Curae; Duis faucibus accumsan odio. Curabitur convallis.",
        "Rating": 4
      },
      {
        "Id": 6,
        "Title": "Ms",
        "Description": "Fusce consequat. Nulla nisl. Nunc nisl.",
        "Rating": 2
      },
      {
        "Id": 7,
        "Title": "Mr",
        "Description": "Maecenas tristique, est et tempus semper, est quam pharetra magna, ac consequat metus sapien ut nunc. Vestibulum ante ipsum primis in faucibus orci luctus et ultrices posuere cubilia Curae; Mauris viverra diam vitae quam. Suspendisse potenti.",
        "Rating": 1
      }
    ]
  },
  {
    "Id": 3,
    "Title": "Mr",
    "Description": "Lorem ipsum dolor sit amet, consectetuer adipiscing elit. Proin risus. Praesent lectus.",
    "PublicationYear": 1803,
    "Director": "Cathee Rekes",
    "Country": "South Africa",
    "Genre": "Adventure",
    "Reviews": [
      {
        "Id": 1,
        "Title": "Rev",
        "Description": "Vestibulum ac est lacinia nisi venenatis tristique. Fusce congue, diam id ornare imperdiet, sapien urna pretium nisl, ut volutpat sapien arcu sed augue. Aliquam erat volutpat.",
        "Rating": 3
      }
    ]
  },
  {
    "Id": 4,
    "Title": "Mr",
    "Description": "In hac habitasse platea dictumst. Etiam faucibus cursus urna. Ut tellus.",
    "PublicationYear": 467,
    "Director": "Cherey Bentjens",
    "Country": "Colombia",
    "Genre": "Horror",
    "Reviews": [
      {
        "Id": 1,
        "Title": "Rev",
        "Description": "Duis consequat dui nec nisi volutpat eleifend. Donec ut dolor. Morbi vel lectus in quam fringilla rhoncus.",
        "Rating": 2
      },
      {
        "Id": 2,
        "Title": "Mr",
        "Description": "Fusce consequat. Nulla nisl. Nunc nisl.",
        "Rating": 3
      },
      {
        "Id": 3,
        "Title": "Rev",
        "Description": "Vestibulum quam sapien, varius ut, blandit non, interdum in, ante. Vestibulum ante ipsum primis in faucibus orci luctus et ultrices posuere cubilia Curae; Duis faucibus accumsan odio. Curabitur convallis.",
        "Rating": 2
      },
      {
        "Id": 4,
        "Title": "Honorable",
        "Description": "Praesent id massa id nisl venenatis lacinia. Aenean sit amet justo. Morbi ut odio.",
        "Rating": 2
      }
    ]
  },
  {
    "Id": 5,
    "Title": "Honorable",
    "Description": "Cras non velit nec nisi vulputate nonummy. Maecenas tincidunt lacus at velit. Vivamus vel nulla eget eros elementum pellentesque.",
    "PublicationYear": 772,
    "Director": "Wash Bedbury",
    "Country": "China",
    "Genre": "Mystery",
    "Reviews": [
      {
        "Id": 1,
        "Title": "Rev",
        "Description": "Donec diam neque, vestibulum eget, vulputate ut, ultrices vel, augue. Vestibulum ante ipsum primis in faucibus orci luctus et ultrices posuere cubilia Curae; Donec pharetra, magna vestibulum aliquet ultrices, erat tortor sollicitudin mi, sit amet lobortis sapien sapien non mi. Integer ac neque.",
        "Rating": 3
      },
      {
        "Id": 2,
        "Title": "Ms",
        "Description": "Phasellus sit amet erat. Nulla tempus. Vivamus in felis eu sapien cursus vestibulum.",
        "Rating": 3
      },
      {
        "Id": 3,
        "Title": "Honorable",
        "Description": "Cras non velit nec nisi vulputate nonummy. Maecenas tincidunt lacus at velit. Vivamus vel nulla eget eros elementum pellentesque.",
        "Rating": 1
      },
      {
        "Id": 4,
        "Title": "Mr",
        "Description": "Fusce consequat. Nulla nisl. Nunc nisl.",
        "Rating": 2
      },
      {
        "Id": 5,
        "Title": "Dr",
        "Description": "In hac habitasse platea dictumst. Etiam faucibus cursus urna. Ut tellus.",
        "Rating": 2
      },
      {
        "Id": 6,
        "Title": "Rev",
        "Description": "Duis bibendum. Morbi non quam nec dui luctus rutrum. Nulla tellus.",
        "Rating": 3
      },
      {
        "Id": 7,
        "Title": "Dr",
        "Description": "Sed ante. Vivamus tortor. Duis mattis egestas metus.",
        "Rating": 1
      }
    ]
  },
  {
    "Id": 6,
    "Title": "Honorable",
    "Description": "Cras non velit nec nisi vulputate nonummy. Maecenas tincidunt lacus at velit. Vivamus vel nulla eget eros elementum pellentesque.",
    "PublicationYear": 446,
    "Director": "Petronia Mercer",
    "Country": "Poland",
    "Genre": "Adventure",
    "Reviews": [
      {
        "Id": 1,
        "Title": "Dr",
        "Description": "Nullam sit amet turpis elementum ligula vehicula consequat. Morbi a ipsum. Integer a nibh.",
        "Rating": 3
      },
      {
        "Id": 2,
        "Title": "Mrs",
        "Description": "Mauris enim leo, rhoncus sed, vestibulum sit amet, cursus id, turpis. Integer aliquet, massa id lobortis convallis, tortor risus dapibus augue, vel accumsan tellus nisi eu orci. Mauris lacinia sapien quis libero.",
        "Rating": 3
      },
      {
        "Id": 3,
        "Title": "Mrs",
        "Description": "Curabitur at ipsum ac tellus semper interdum. Mauris ullamcorper purus sit amet nulla. Quisque arcu libero, rutrum ac, lobortis vel, dapibus at, diam.",
        "Rating": 2
      },
      {
        "Id": 4,
        "Title": "Honorable",
        "Description": "Maecenas tristique, est et tempus semper, est quam pharetra magna, ac consequat metus sapien ut nunc. Vestibulum ante ipsum primis in faucibus orci luctus et ultrices posuere cubilia Curae; Mauris viverra diam vitae quam. Suspendisse potenti.",
        "Rating": 2
      }
    ]
  },
  {
    "Id": 7,
    "Title": "Rev",
    "Description": "Cras non velit nec nisi vulputate nonummy. Maecenas tincidunt lacus at velit. Vivamus vel nulla eget eros elementum pellentesque.",
    "PublicationYear": 260,
    "Director": "Burty Ternott",
    "Country": "Nigeria",
    "Genre": "Romance",
    "Reviews": [
      {
        "Id": 1,
        "Title": "Rev",
        "Description": "In congue. Etiam justo. Etiam pretium iaculis justo.",
        "Rating": 3
      },
      {
        "Id": 2,
        "Title": "Ms",
        "Description": "Sed sagittis. Nam congue, risus semper porta volutpat, quam pede lobortis ligula, sit amet eleifend pede libero quis orci. Nullam molestie nibh in lectus.",
        "Rating": 1
      }
    ]
  },
  {
    "Id": 8,
    "Title": "Ms",
    "Description": "Duis bibendum. Morbi non quam nec dui luctus rutrum. Nulla tellus.",
    "PublicationYear": 1850,
    "Director": "Brendon Whitford",
    "Country": "Portugal",
    "Genre": "Western",
    "Reviews": []
  },
  {
    "Id": 9,
    "Title": "Mrs",
    "Description": "Integer ac leo. Pellentesque ultrices mattis odio. Donec vitae nisi.",
    "PublicationYear": 366,
    "Director": "Olwen Rangall",
    "Country": "Nepal",
    "Genre": "Mystery",
    "Reviews": [
      {
        "Id": 1,
        "Title": "Honorable",
        "Description": "Sed ante. Vivamus tortor. Duis mattis egestas metus.",
        "Rating": 5
      },
      {
        "Id": 2,
        "Title": "Honorable",
        "Description": "Quisque porta volutpat erat. Quisque erat eros, viverra eget, congue eget, semper rutrum, nulla. Nunc purus.",
        "Rating": 3
      },
      {
        "Id": 3,
        "Title": "Honorable",
        "Description": "Fusce consequat. Nulla nisl. Nunc nisl.",
        "Rating": 1
      },
      {
        "Id": 4,
        "Title": "Honorable",
        "Description": "Fusce consequat. Nulla nisl. Nunc nisl.",
        "Rating": 1
      },
      {
        "Id": 5,
        "Title": "Mrs",
        "Description": "Proin leo odio, porttitor id, consequat in, consequat ut, nulla. Sed accumsan felis. Ut at dolor quis odio consequat varius.",
        "Rating": 5
      },
      {
        "Id": 6,
        "Title": "Dr",
        "Description": "Morbi porttitor lorem id ligula. Suspendisse ornare consequat lectus. In est risus, auctor sed, tristique in, tempus sit amet, sem.",
        "Rating": 3
      },
      {
        "Id": 7,
        "Title": "Ms",
        "Description": "Morbi non lectus. Aliquam sit amet diam in magna bibendum imperdiet. Nullam orci pede, venenatis non, sodales sed, tincidunt eu, felis.",
        "Rating": 3
      },
      {
        "Id": 8,
        "Title": "Dr",
        "Description": "Nam ultrices, libero non mattis pulvinar, nulla pede ullamcorper augue, a suscipit nulla elit ac nulla. Sed vel enim sit amet nunc viverra dapibus. Nulla suscipit ligula in lacus.",
        "Rating": 4
      },
      {
        "Id": 9,
        "Title": "Mrs",
        "Description": "Proin eu mi. Nulla ac enim. In tempor, turpis nec euismod scelerisque, quam turpis adipiscing lorem, vitae mattis nibh ligula nec sem.",
        "Rating": 3
      }
    ]
  },
  {
    "Id": 10,
    "Title": "Mrs",
    "Description": "In hac habitasse platea dictumst. Etiam faucibus cursus urna. Ut tellus.",
    "PublicationYear": 1984,
    "Director": "Klaus Trinder",
    "Country": "Indonesia",
    "Genre": "Romance",
    "Reviews": [
      {
        "Id": 1,
        "Title": "Honorable",
        "Description": "Proin eu mi. Nulla ac enim. In tempor, turpis nec euismod scelerisque, quam turpis adipiscing lorem, vitae mattis nibh ligula nec sem.",
        "Rating": 3
      },
      {
        "Id": 2,
        "Title": "Ms",
        "Description": "Duis consequat dui nec nisi volutpat eleifend. Donec ut dolor. Morbi vel lectus in quam fringilla rhoncus.",
        "Rating": 2
      },
      {
        "Id": 3,
        "Title": "Dr",
        "Description": "In sagittis dui vel nisl. Duis ac nibh. Fusce lacus purus, aliquet at, feugiat non, pretium quis, lectus.",
        "Rating": 4
      },
      {
        "Id": 4,
        "Title": "Dr",
        "Description": "Fusce consequat. Nulla nisl. Nunc nisl.",
        "Rating": 1
      },
      {
        "Id": 5,
        "Title": "Mr",
        "Description": "Sed sagittis. Nam congue, risus semper porta volutpat, quam pede lobortis ligula, sit amet eleifend pede libero quis orci. Nullam molestie nibh in lectus.",
        "Rating": 5
      },
      {
        "Id": 6,
        "Title": "Mrs",
        "Description": "Vestibulum quam sapien, varius ut, blandit non, interdum in, ante. Vestibulum ante ipsum primis in faucibus orci luctus et ultrices posuere cubilia Curae; Duis faucibus accumsan odio. Curabitur convallis.",
        "Rating": 3
      },
      {
        "Id": 7,
        "Title": "Ms",
        "Description": "Aenean fermentum. Donec ut mauris eget massa tempor convallis. Nulla neque libero, convallis eget, eleifend luctus, ultricies eu, nibh.",
        "Rating": 4
      },
      {
        "Id": 8,
        "Title": "Mrs",
        "Description": "Praesent id massa id nisl venenatis lacinia. Aenean sit amet justo. Morbi ut odio.",
        "Rating": 3
      },
      {
        "Id": 9,
        "Title": "Mrs",
        "Description": "Nam ultrices, libero non mattis pulvinar, nulla pede ullamcorper augue, a suscipit nulla elit ac nulla. Sed vel enim sit amet nunc viverra dapibus. Nulla suscipit ligula in lacus.",
        "Rating": 2
      },
      {
        "Id": 10,
        "Title": "Dr",
        "Description": "In hac habitasse platea dictumst. Etiam faucibus cursus urna. Ut tellus.",
        "Rating": 3
      }
    ]
  },
  {
    "Id": 11,
    "Title": "Dr",
    "Description": "In hac habitasse platea dictumst. Etiam faucibus cursus urna. Ut tellus.",
    "PublicationYear": 61,
    "Director": "Rania Bean",
    "Country": "Brazil",
    "Genre": "Adventure",
    "Reviews": [
      {
        "Id": 1,
        "Title": "Honorable",
        "Description": "Suspendisse potenti. In eleifend quam a odio. In hac habitasse platea dictumst.",
        "Rating": 4
      },
      {
        "Id": 2,
        "Title": "Rev",
        "Description": "Fusce consequat. Nulla nisl. Nunc nisl.",
        "Rating": 4
      },
      {
        "Id": 3,
        "Title": "Rev",
        "Description": "Vestibulum quam sapien, varius ut, blandit non, interdum in, ante. Vestibulum ante ipsum primis in faucibus orci luctus et ultrices posuere cubilia Curae; Duis faucibus accumsan odio. Curabitur convallis.",
        "Rating": 1
      },
      {
        "Id": 4,
        "Title": "Rev",
        "Description": "Etiam vel augue. Vestibulum rutrum rutrum neque. Aenean auctor gravida sem.",
        "Rating": 4
      },
      {
        "Id": 5,
        "Title": "Mrs",
        "Description": "Vestibulum quam sapien, varius ut, blandit non, interdum in, ante. Vestibulum ante ipsum primis in faucibus orci luctus et ultrices posuere cubilia Curae; Duis faucibus accumsan odio. Curabitur convallis.",
        "Rating": 1
      },
      {
        "Id": 6,
        "Title": "Mrs",
        "Description": "Cras non velit nec nisi vulputate nonummy. Maecenas tincidunt lacus at velit. Vivamus vel nulla eget eros elementum pellentesque.",
        "Rating": 4
      },
      {
        "Id": 7,
        "Title": "Dr",
        "Description": "Cum sociis natoque penatibus et magnis dis parturient montes, nascetur ridiculus mus. Vivamus vestibulum sagittis sapien. Cum sociis natoque penatibus et magnis dis parturient montes, nascetur ridiculus mus.",
        "Rating": 1
      }
    ]
  },
  {
    "Id": 12,
    "Title": "Mrs",
    "Description": "Maecenas ut massa quis augue luctus tincidunt. Nulla mollis molestie lorem. Quisque ut erat.",
    "PublicationYear": 706,
    "Director": "Nerti Cummungs",
    "Country": "Indonesia",
    "Genre": "Comedy",
    "Reviews": [
      {
        "Id": 1,
        "Title": "Ms",
        "Description": "Lorem ipsum dolor sit amet, consectetuer adipiscing elit. Proin risus. Praesent lectus.",
        "Rating": 4
      },
      {
        "Id": 2,
        "Title": "Mrs",
        "Description": "Nullam sit amet turpis elementum ligula vehicula consequat. Morbi a ipsum. Integer a nibh.",
        "Rating": 2
      }
    ]
  },
  {
    "Id": 13,
    "Title": "Mrs",
    "Description": "Praesent blandit. Nam nulla. Integer pede justo, lacinia eget, tincidunt eget, tempus vel, pede.",
    "PublicationYear": 1982,
    "Director": "Ina Tonkinson",
    "Country": "Vietnam",
    "Genre": "Fantasy",
    "Reviews": [
      {
        "Id": 1,
        "Title": "Ms",
        "Description": "Praesent blandit. Nam nulla. Integer pede justo, lacinia eget, tincidunt eget, tempus vel, pede.",
        "Rating": 4
      },
      {
        "Id": 2,
        "Title": "Ms",
        "Description": "Duis consequat dui nec nisi volutpat eleifend. Donec ut dolor. Morbi vel lectus in quam fringilla rhoncus.",
        "Rating": 1
      },
      {
        "Id": 3,
        "Title": "Dr",
        "Description": "Quisque porta volutpat erat. Quisque erat eros, viverra eget, congue eget, semper rutrum, nulla. Nunc purus.",
        "Rating": 2
      }
    ]
  },
  {
    "Id": 14,
    "Title": "Mr",
    "Description": "Curabitur gravida nisi at nibh. In hac habitasse platea dictumst. Aliquam augue quam, sollicitudin vitae, consectetuer eget, rutrum at, lorem.",
    "PublicationYear": 402,
    "Director": "Chastity Hay",
    "Country": "China",
    "Genre": "Action",
    "Reviews": [
      {
        "Id": 1,
        "Title": "Honorable",
        "Description": "Donec diam neque, vestibulum eget, vulputate ut, ultrices vel, augue. Vestibulum ante ipsum primis in faucibus orci luctus et ultrices posuere cubilia Curae; Donec pharetra, magna vestibulum aliquet ultrices, erat tortor sollicitudin mi, sit amet lobortis sapien sapien non mi. Integer ac neque.",
        "Rating": 1
      },
      {
        "Id": 2,
        "Title": "Mr",
        "Description": "Curabitur in libero ut massa volutpat convallis. Morbi odio odio, elementum eu, interdum eu, tincidunt in, leo. Maecenas pulvinar lobortis est.",
        "Rating": 5
      },
      {
        "Id": 3,
        "Title": "Rev",
        "Description": "Phasellus sit amet erat. Nulla tempus. Vivamus in felis eu sapien cursus vestibulum.",
        "Rating": 4
      }
    ]
  },
  {
    "Id": 15,
    "Title": "Dr",
    "Description": "Aenean lectus. Pellentesque eget nunc. Donec quis orci eget orci vehicula condimentum.",
    "PublicationYear": 1380,
    "Director": "Reiko Howton",
    "Country": "Brazil",
    "Genre": "Thriller",
    "Reviews": []
  },
  {
    "Id": 16,
    "Title": "Honorable",
    "Description": "In hac habitasse platea dictumst. Etiam faucibus cursus urna. Ut tellus.",
    "PublicationYear": 1072,
    "Director": "Carrissa Stripp",
    "Country": "China",
    "Genre": "Romance",
    "Reviews": [
      {
        "Id": 1,
        "Title": "Rev",
        "Description": "Duis bibendum. Morbi non quam nec dui luctus rutrum. Nulla tellus.",
        "Rating": 2
      },
      {
        "Id": 2,
        "Title": "Mrs",
        "Description": "Mauris enim leo, rhoncus sed, vestibulum sit amet, cursus id, turpis. Integer aliquet, massa id lobortis convallis, tortor risus dapibus augue, vel accumsan tellus nisi eu orci. Mauris lacinia sapien quis libero.",
        "Rating": 3
      },
      {
        "Id": 3,
        "Title": "Dr",
        "Description": "Integer ac leo. Pellentesque ultrices mattis odio. Donec vitae nisi.",
        "Rating": 2
      },
      {
        "Id": 4,
        "Title": "Mrs",
        "Description": "Quisque porta volutpat erat. Quisque erat eros, viverra eget, congue eget, semper rutrum, nulla. Nunc purus.",
        "Rating": 1
      },
      {
        "Id": 5,
        "Title": "Honorable",
        "Description": "Sed sagittis. Nam congue, risus semper porta volutpat, quam pede lobortis ligula, sit amet eleifend pede libero quis orci. Nullam molestie nibh in lectus.",
        "Rating": 1
      },
      {
        "Id": 6,
        "Title": "Honorable",
        "Description": "Proin interdum mauris non ligula pellentesque ultrices. Phasellus id sapien in sapien iaculis congue. Vivamus metus arcu, adipiscing molestie, hendrerit at, vulputate vitae, nisl.",
        "Rating": 1
      },
      {
        "Id": 7,
        "Title": "Mrs",
        "Description": "Aenean lectus. Pellentesque eget nunc. Donec quis orci eget orci vehicula condimentum.",
        "Rating": 2
      },
      {
        "Id": 8,
        "Title": "Honorable",
        "Description": "In congue. Etiam justo. Etiam pretium iaculis justo.",
        "Rating": 2
      },
      {
        "Id": 9,
        "Title": "Mrs",
        "Description": "Praesent blandit. Nam nulla. Integer pede justo, lacinia eget, tincidunt eget, tempus vel, pede.",
        "Rating": 3
      },
      {
        "Id": 10,
        "Title": "Honorable",
        "Description": "Vestibulum ac est lacinia nisi venenatis tristique. Fusce congue, diam id ornare imperdiet, sapien urna pretium nisl, ut volutpat sapien arcu sed augue. Aliquam erat volutpat.",
        "Rating": 1
      }
    ]
  },
  {
    "Id": 17,
    "Title": "Honorable",
    "Description": "Curabitur at ipsum ac tellus semper interdum. Mauris ullamcorper purus sit amet nulla. Quisque arcu libero, rutrum ac, lobortis vel, dapibus at, diam.",
    "PublicationYear": 947,
    "Director": "Tani Stiddard",
    "Country": "Indonesia",
    "Genre": "Romance",
    "Reviews": []
  },
  {
    "Id": 18,
    "Title": "Ms",
    "Description": "Vestibulum ac est lacinia nisi venenatis tristique. Fusce congue, diam id ornare imperdiet, sapien urna pretium nisl, ut volutpat sapien arcu sed augue. Aliquam erat volutpat.",
    "PublicationYear": 581,
    "Director": "Shayna Thraves",
    "Country": "China",
    "Genre": "Drama",
    "Reviews": [
      {
        "Id": 1,
        "Title": "Ms",
        "Description": "Donec diam neque, vestibulum eget, vulputate ut, ultrices vel, augue. Vestibulum ante ipsum primis in faucibus orci luctus et ultrices posuere cubilia Curae; Donec pharetra, magna vestibulum aliquet ultrices, erat tortor sollicitudin mi, sit amet lobortis sapien sapien non mi. Integer ac neque.",
        "Rating": 4
      },
      {
        "Id": 2,
        "Title": "Ms",
        "Description": "Integer ac leo. Pellentesque ultrices mattis odio. Donec vitae nisi.",
        "Rating": 2
      },
      {
        "Id": 3,
        "Title": "Mrs",
        "Description": "Praesent id massa id nisl venenatis lacinia. Aenean sit amet justo. Morbi ut odio.",
        "Rating": 3
      },
      {
        "Id": 4,
        "Title": "Dr",
        "Description": "In quis justo. Maecenas rhoncus aliquam lacus. Morbi quis tortor id nulla ultrices aliquet.",
        "Rating": 2
      },
      {
        "Id": 5,
        "Title": "Honorable",
        "Description": "Duis bibendum, felis sed interdum venenatis, turpis enim blandit mi, in porttitor pede justo eu massa. Donec dapibus. Duis at velit eu est congue elementum.",
        "Rating": 3
      },
      {
        "Id": 6,
        "Title": "Ms",
        "Description": "Morbi porttitor lorem id ligula. Suspendisse ornare consequat lectus. In est risus, auctor sed, tristique in, tempus sit amet, sem.",
        "Rating": 4
      },
      {
        "Id": 7,
        "Title": "Dr",
        "Description": "In quis justo. Maecenas rhoncus aliquam lacus. Morbi quis tortor id nulla ultrices aliquet.",
        "Rating": 5
      }
    ]
  },
  {
    "Id": 19,
    "Title": "Honorable",
    "Description": "Pellentesque at nulla. Suspendisse potenti. Cras in purus eu magna vulputate luctus.",
    "PublicationYear": 1829,
    "Director": "Leola Sillitoe",
    "Country": "Indonesia",
    "Genre": "Comedy",
    "Reviews": [
      {
        "Id": 1,
        "Title": "Ms",
        "Description": "Aenean fermentum. Donec ut mauris eget massa tempor convallis. Nulla neque libero, convallis eget, eleifend luctus, ultricies eu, nibh.",
        "Rating": 4
      },
      {
        "Id": 2,
        "Title": "Rev",
        "Description": "Donec diam neque, vestibulum eget, vulputate ut, ultrices vel, augue. Vestibulum ante ipsum primis in faucibus orci luctus et ultrices posuere cubilia Curae; Donec pharetra, magna vestibulum aliquet ultrices, erat tortor sollicitudin mi, sit amet lobortis sapien sapien non mi. Integer ac neque.",
        "Rating": 1
      },
      {
        "Id": 3,
        "Title": "Mr",
        "Description": "Morbi non lectus. Aliquam sit amet diam in magna bibendum imperdiet. Nullam orci pede, venenatis non, sodales sed, tincidunt eu, felis.",
        "Rating": 3
      },
      {
        "Id": 4,
        "Title": "Honorable",
        "Description": "Aliquam quis turpis eget elit sodales scelerisque. Mauris sit amet eros. Suspendisse accumsan tortor quis turpis.",
        "Rating": 3
      },
      {
        "Id": 5,
        "Title": "Honorable",
        "Description": "Aenean lectus. Pellentesque eget nunc. Donec quis orci eget orci vehicula condimentum.",
        "Rating": 2
      }
    ]
  },
  {
    "Id": 20,
    "Title": "Mr",
    "Description": "Duis bibendum, felis sed interdum venenatis, turpis enim blandit mi, in porttitor pede justo eu massa. Donec dapibus. Duis at velit eu est congue elementum.",
    "PublicationYear": 1282,
    "Director": "Arabela Jaeggi",
    "Country": "United States",
    "Genre": "Romance",
    "Reviews": [
      {
        "Id": 1,
        "Title": "Honorable",
        "Description": "Fusce posuere felis sed lacus. Morbi sem mauris, laoreet ut, rhoncus aliquet, pulvinar sed, nisl. Nunc rhoncus dui vel sem.",
        "Rating": 5
      },
      {
        "Id": 2,
        "Title": "Mrs",
        "Description": "Fusce consequat. Nulla nisl. Nunc nisl.",
        "Rating": 1
      },
      {
        "Id": 3,
        "Title": "Honorable",
        "Description": "Duis consequat dui nec nisi volutpat eleifend. Donec ut dolor. Morbi vel lectus in quam fringilla rhoncus.",
        "Rating": 3
      },
      {
        "Id": 4,
        "Title": "Honorable",
        "Description": "Sed sagittis. Nam congue, risus semper porta volutpat, quam pede lobortis ligula, sit amet eleifend pede libero quis orci. Nullam molestie nibh in lectus.",
        "Rating": 3
      },
      {
        "Id": 5,
        "Title": "Mrs",
        "Description": "Maecenas leo odio, condimentum id, luctus nec, molestie sed, justo. Pellentesque viverra pede ac diam. Cras pellentesque volutpat dui.",
        "Rating": 3
      },
      {
        "Id": 6,
        "Title": "Mr",
        "Description": "Lorem ipsum dolor sit amet, consectetuer adipiscing elit. Proin risus. Praesent lectus.",
        "Rating": 2
      },
      {
        "Id": 7,
        "Title": "Dr",
        "Description": "Proin interdum mauris non ligula pellentesque ultrices. Phasellus id sapien in sapien iaculis congue. Vivamus metus arcu, adipiscing molestie, hendrerit at, vulputate vitae, nisl.",
        "Rating": 5
      },
      {
        "Id": 8,
        "Title": "Ms",
        "Description": "Maecenas ut massa quis augue luctus tincidunt. Nulla mollis molestie lorem. Quisque ut erat.",
        "Rating": 4
      }
    ]
  },
  {
    "Id": 21,
    "Title": "Ms",
    "Description": "Proin eu mi. Nulla ac enim. In tempor, turpis nec euismod scelerisque, quam turpis adipiscing lorem, vitae mattis nibh ligula nec sem.",
    "PublicationYear": 2000,
    "Director": "Prescott Drowsfield",
    "Country": "Philippines",
    "Genre": "Mystery",
    "Reviews": [
      {
        "Id": 1,
        "Title": "Ms",
        "Description": "Quisque id justo sit amet sapien dignissim vestibulum. Vestibulum ante ipsum primis in faucibus orci luctus et ultrices posuere cubilia Curae; Nulla dapibus dolor vel est. Donec odio justo, sollicitudin ut, suscipit a, feugiat et, eros.",
        "Rating": 3
      },
      {
        "Id": 2,
        "Title": "Dr",
        "Description": "Praesent blandit. Nam nulla. Integer pede justo, lacinia eget, tincidunt eget, tempus vel, pede.",
        "Rating": 4
      },
      {
        "Id": 3,
        "Title": "Ms",
        "Description": "Quisque porta volutpat erat. Quisque erat eros, viverra eget, congue eget, semper rutrum, nulla. Nunc purus.",
        "Rating": 4
      },
      {
        "Id": 4,
        "Title": "Ms",
        "Description": "Donec diam neque, vestibulum eget, vulputate ut, ultrices vel, augue. Vestibulum ante ipsum primis in faucibus orci luctus et ultrices posuere cubilia Curae; Donec pharetra, magna vestibulum aliquet ultrices, erat tortor sollicitudin mi, sit amet lobortis sapien sapien non mi. Integer ac neque.",
        "Rating": 1
      },
      {
        "Id": 5,
        "Title": "Mrs",
        "Description": "Pellentesque at nulla. Suspendisse potenti. Cras in purus eu magna vulputate luctus.",
        "Rating": 5
      },
      {
        "Id": 6,
        "Title": "Dr",
        "Description": "Proin eu mi. Nulla ac enim. In tempor, turpis nec euismod scelerisque, quam turpis adipiscing lorem, vitae mattis nibh ligula nec sem.",
        "Rating": 4
      },
      {
        "Id": 7,
        "Title": "Mrs",
        "Description": "Vestibulum quam sapien, varius ut, blandit non, interdum in, ante. Vestibulum ante ipsum primis in faucibus orci luctus et ultrices posuere cubilia Curae; Duis faucibus accumsan odio. Curabitur convallis.",
        "Rating": 4
      }
    ]
  },
  {
    "Id": 22,
    "Title": "Dr",
    "Description": "Cum sociis natoque penatibus et magnis dis parturient montes, nascetur ridiculus mus. Vivamus vestibulum sagittis sapien. Cum sociis natoque penatibus et magnis dis parturient montes, nascetur ridiculus mus.",
    "PublicationYear": 1407,
    "Director": "Maureen Ipsgrave",
    "Country": "Russia",
    "Genre": "Sci-Fi",
    "Reviews": [
      {
        "Id": 1,
        "Title": "Mrs",
        "Description": "Praesent id massa id nisl venenatis lacinia. Aenean sit amet justo. Morbi ut odio.",
        "Rating": 3
      },
      {
        "Id": 2,
        "Title": "Ms",
        "Description": "Quisque porta volutpat erat. Quisque erat eros, viverra eget, congue eget, semper rutrum, nulla. Nunc purus.",
        "Rating": 5
      },
      {
        "Id": 3,
        "Title": "Rev",
        "Description": "Lorem ipsum dolor sit amet, consectetuer adipiscing elit. Proin risus. Praesent lectus.",
        "Rating": 2
      },
      {
        "Id": 4,
        "Title": "Dr",
        "Description": "Duis consequat dui nec nisi volutpat eleifend. Donec ut dolor. Morbi vel lectus in quam fringilla rhoncus.",
        "Rating": 5
      },
      {
        "Id": 5,
        "Title": "Honorable",
        "Description": "In quis justo. Maecenas rhoncus aliquam lacus. Morbi quis tortor id nulla ultrices aliquet.",
        "Rating": 1
      },
      {
        "Id": 6,
        "Title": "Dr",
        "Description": "Duis bibendum. Morbi non quam nec dui luctus rutrum. Nulla tellus.",
        "Rating": 4
      },
      {
        "Id": 7,
        "Title": "Rev",
        "Description": "In hac habitasse platea dictumst. Morbi vestibulum, velit id pretium iaculis, diam erat fermentum justo, nec condimentum neque sapien placerat ante. Nulla justo.",
        "Rating": 1
      },
      {
        "Id": 8,
        "Title": "Dr",
        "Description": "Cras mi pede, malesuada in, imperdiet et, commodo vulputate, justo. In blandit ultrices enim. Lorem ipsum dolor sit amet, consectetuer adipiscing elit.",
        "Rating": 4
      },
      {
        "Id": 9,
        "Title": "Mrs",
        "Description": "Curabitur in libero ut massa volutpat convallis. Morbi odio odio, elementum eu, interdum eu, tincidunt in, leo. Maecenas pulvinar lobortis est.",
        "Rating": 5
      }
    ]
  },
  {
    "Id": 23,
    "Title": "Rev",
    "Description": "Aenean fermentum. Donec ut mauris eget massa tempor convallis. Nulla neque libero, convallis eget, eleifend luctus, ultricies eu, nibh.",
    "PublicationYear": 500,
    "Director": "Ax Trillo",
    "Country": "Argentina",
    "Genre": "Drama",
    "Reviews": [
      {
        "Id": 1,
        "Title": "Ms",
        "Description": "Curabitur in libero ut massa volutpat convallis. Morbi odio odio, elementum eu, interdum eu, tincidunt in, leo. Maecenas pulvinar lobortis est.",
        "Rating": 1
      },
      {
        "Id": 2,
        "Title": "Honorable",
        "Description": "Maecenas ut massa quis augue luctus tincidunt. Nulla mollis molestie lorem. Quisque ut erat.",
        "Rating": 2
      },
      {
        "Id": 3,
        "Title": "Rev",
        "Description": "Pellentesque at nulla. Suspendisse potenti. Cras in purus eu magna vulputate luctus.",
        "Rating": 3
      },
      {
        "Id": 4,
        "Title": "Rev",
        "Description": "Phasellus in felis. Donec semper sapien a libero. Nam dui.",
        "Rating": 4
      },
      {
        "Id": 5,
        "Title": "Honorable",
        "Description": "In quis justo. Maecenas rhoncus aliquam lacus. Morbi quis tortor id nulla ultrices aliquet.",
        "Rating": 3
      },
      {
        "Id": 6,
        "Title": "Rev",
        "Description": "Aenean fermentum. Donec ut mauris eget massa tempor convallis. Nulla neque libero, convallis eget, eleifend luctus, ultricies eu, nibh.",
        "Rating": 3
      },
      {
        "Id": 7,
        "Title": "Ms",
        "Description": "Aliquam quis turpis eget elit sodales scelerisque. Mauris sit amet eros. Suspendisse accumsan tortor quis turpis.",
        "Rating": 4
      },
      {
        "Id": 8,
        "Title": "Mr",
        "Description": "Mauris enim leo, rhoncus sed, vestibulum sit amet, cursus id, turpis. Integer aliquet, massa id lobortis convallis, tortor risus dapibus augue, vel accumsan tellus nisi eu orci. Mauris lacinia sapien quis libero.",
        "Rating": 2
      },
      {
        "Id": 9,
        "Title": "Dr",
        "Description": "Maecenas tristique, est et tempus semper, est quam pharetra magna, ac consequat metus sapien ut nunc. Vestibulum ante ipsum primis in faucibus orci luctus et ultrices posuere cubilia Curae; Mauris viverra diam vitae quam. Suspendisse potenti.",
        "Rating": 3
      },
      {
        "Id": 10,
        "Title": "Ms",
        "Description": "In quis justo. Maecenas rhoncus aliquam lacus. Morbi quis tortor id nulla ultrices aliquet.",
        "Rating": 3
      }
    ]
  },
  {
    "Id": 24,
    "Title": "Dr",
    "Description": "Aliquam quis turpis eget elit sodales scelerisque. Mauris sit amet eros. Suspendisse accumsan tortor quis turpis.",
    "PublicationYear": 1239,
    "Director": "Gustavo Pickard",
    "Country": "Russia",
    "Genre": "Comedy",
    "Reviews": []
  },
  {
    "Id": 25,
    "Title": "Dr",
    "Description": "In quis justo. Maecenas rhoncus aliquam lacus. Morbi quis tortor id nulla ultrices aliquet.",
    "PublicationYear": 1519,
    "Director": "Justina Tyrer",
    "Country": "Brazil",
    "Genre": "Romance",
    "Reviews": [
      {
        "Id": 1,
        "Title": "Mrs",
        "Description": "Morbi non lectus. Aliquam sit amet diam in magna bibendum imperdiet. Nullam orci pede, venenatis non, sodales sed, tincidunt eu, felis.",
        "Rating": 3
      },
      {
        "Id": 2,
        "Title": "Mr",
        "Description": "Aliquam quis turpis eget elit sodales scelerisque. Mauris sit amet eros. Suspendisse accumsan tortor quis turpis.",
        "Rating": 2
      },
      {
        "Id": 3,
        "Title": "Mrs",
        "Description": "Quisque id justo sit amet sapien dignissim vestibulum. Vestibulum ante ipsum primis in faucibus orci luctus et ultrices posuere cubilia Curae; Nulla dapibus dolor vel est. Donec odio justo, sollicitudin ut, suscipit a, feugiat et, eros.",
        "Rating": 5
      }
    ]
  },
  {
    "Id": 26,
    "Title": "Honorable",
    "Description": "Quisque porta volutpat erat. Quisque erat eros, viverra eget, congue eget, semper rutrum, nulla. Nunc purus.",
    "PublicationYear": 1371,
    "Director": "Vernon Middell",
    "Country": "Macedonia",
    "Genre": "Romance",
    "Reviews": [
      {
        "Id": 1,
        "Title": "Rev",
        "Description": "Duis consequat dui nec nisi volutpat eleifend. Donec ut dolor. Morbi vel lectus in quam fringilla rhoncus.",
        "Rating": 1
      },
      {
        "Id": 2,
        "Title": "Dr",
        "Description": "Praesent blandit. Nam nulla. Integer pede justo, lacinia eget, tincidunt eget, tempus vel, pede.",
        "Rating": 1
      },
      {
        "Id": 3,
        "Title": "Mrs",
        "Description": "Vestibulum quam sapien, varius ut, blandit non, interdum in, ante. Vestibulum ante ipsum primis in faucibus orci luctus et ultrices posuere cubilia Curae; Duis faucibus accumsan odio. Curabitur convallis.",
        "Rating": 2
      },
      {
        "Id": 4,
        "Title": "Honorable",
        "Description": "Duis consequat dui nec nisi volutpat eleifend. Donec ut dolor. Morbi vel lectus in quam fringilla rhoncus.",
        "Rating": 3
      },
      {
        "Id": 5,
        "Title": "Ms",
        "Description": "Curabitur gravida nisi at nibh. In hac habitasse platea dictumst. Aliquam augue quam, sollicitudin vitae, consectetuer eget, rutrum at, lorem.",
        "Rating": 3
      },
      {
        "Id": 6,
        "Title": "Mr",
        "Description": "Proin leo odio, porttitor id, consequat in, consequat ut, nulla. Sed accumsan felis. Ut at dolor quis odio consequat varius.",
        "Rating": 5
      }
    ]
  },
  {
    "Id": 27,
    "Title": "Ms",
    "Description": "Fusce consequat. Nulla nisl. Nunc nisl.",
    "PublicationYear": 959,
    "Director": "Giacomo Moakler",
    "Country": "Azerbaijan",
    "Genre": "Thriller",
    "Reviews": []
  },
  {
    "Id": 28,
    "Title": "Mrs",
    "Description": "Integer ac leo. Pellentesque ultrices mattis odio. Donec vitae nisi.",
    "PublicationYear": 659,
    "Director": "Vincenz Jerram",
    "Country": "Philippines",
    "Genre": "Action",
    "Reviews": [
      {
        "Id": 1,
        "Title": "Ms",
        "Description": "Nam ultrices, libero non mattis pulvinar, nulla pede ullamcorper augue, a suscipit nulla elit ac nulla. Sed vel enim sit amet nunc viverra dapibus. Nulla suscipit ligula in lacus.",
        "Rating": 2
      },
      {
        "Id": 2,
        "Title": "Ms",
        "Description": "Cras non velit nec nisi vulputate nonummy. Maecenas tincidunt lacus at velit. Vivamus vel nulla eget eros elementum pellentesque.",
        "Rating": 2
      },
      {
        "Id": 3,
        "Title": "Rev",
        "Description": "Maecenas leo odio, condimentum id, luctus nec, molestie sed, justo. Pellentesque viverra pede ac diam. Cras pellentesque volutpat dui.",
        "Rating": 4
      },
      {
        "Id": 4,
        "Title": "Dr",
        "Description": "Morbi non lectus. Aliquam sit amet diam in magna bibendum imperdiet. Nullam orci pede, venenatis non, sodales sed, tincidunt eu, felis.",
        "Rating": 2
      }
    ]
  },
  {
    "Id": 29,
    "Title": "Dr",
    "Description": "Curabitur in libero ut massa volutpat convallis. Morbi odio odio, elementum eu, interdum eu, tincidunt in, leo. Maecenas pulvinar lobortis est.",
    "PublicationYear": 523,
    "Director": "Bone Nortunen",
    "Country": "China",
    "Genre": "Romance",
    "Reviews": [
      {
        "Id": 1,
        "Title": "Dr",
        "Description": "Nulla ut erat id mauris vulputate elementum. Nullam varius. Nulla facilisi.",
        "Rating": 2
      },
      {
        "Id": 2,
        "Title": "Honorable",
        "Description": "Fusce consequat. Nulla nisl. Nunc nisl.",
        "Rating": 1
      },
      {
        "Id": 3,
        "Title": "Mrs",
        "Description": "Vestibulum quam sapien, varius ut, blandit non, interdum in, ante. Vestibulum ante ipsum primis in faucibus orci luctus et ultrices posuere cubilia Curae; Duis faucibus accumsan odio. Curabitur convallis.",
        "Rating": 1
      },
      {
        "Id": 4,
        "Title": "Mr",
        "Description": "Proin interdum mauris non ligula pellentesque ultrices. Phasellus id sapien in sapien iaculis congue. Vivamus metus arcu, adipiscing molestie, hendrerit at, vulputate vitae, nisl.",
        "Rating": 4
      }
    ]
  },
  {
    "Id": 30,
    "Title": "Honorable",
    "Description": "Aenean lectus. Pellentesque eget nunc. Donec quis orci eget orci vehicula condimentum.",
    "PublicationYear": 1293,
    "Director": "Salem Antao",
    "Country": "Philippines",
    "Genre": "Fantasy",
    "Reviews": [
      {
        "Id": 1,
        "Title": "Ms",
        "Description": "Duis aliquam convallis nunc. Proin at turpis a pede posuere nonummy. Integer non velit.",
        "Rating": 4
      },
      {
        "Id": 2,
        "Title": "Ms",
        "Description": "Etiam vel augue. Vestibulum rutrum rutrum neque. Aenean auctor gravida sem.",
        "Rating": 4
      },
      {
        "Id": 3,
        "Title": "Mrs",
        "Description": "Praesent id massa id nisl venenatis lacinia. Aenean sit amet justo. Morbi ut odio.",
        "Rating": 5
      },
      {
        "Id": 4,
        "Title": "Rev",
        "Description": "Aliquam quis turpis eget elit sodales scelerisque. Mauris sit amet eros. Suspendisse accumsan tortor quis turpis.",
        "Rating": 5
      },
      {
        "Id": 5,
        "Title": "Honorable",
        "Description": "In hac habitasse platea dictumst. Etiam faucibus cursus urna. Ut tellus.",
        "Rating": 5
      }
    ]
  },
  {
    "Id": 31,
    "Title": "Rev",
    "Description": "In sagittis dui vel nisl. Duis ac nibh. Fusce lacus purus, aliquet at, feugiat non, pretium quis, lectus.",
    "PublicationYear": 670,
    "Director": "Sidnee Giannasi",
    "Country": "China",
    "Genre": "Drama",
    "Reviews": [
      {
        "Id": 1,
        "Title": "Rev",
        "Description": "Cum sociis natoque penatibus et magnis dis parturient montes, nascetur ridiculus mus. Vivamus vestibulum sagittis sapien. Cum sociis natoque penatibus et magnis dis parturient montes, nascetur ridiculus mus.",
        "Rating": 3
      },
      {
        "Id": 2,
        "Title": "Honorable",
        "Description": "Sed ante. Vivamus tortor. Duis mattis egestas metus.",
        "Rating": 2
      },
      {
        "Id": 3,
        "Title": "Honorable",
        "Description": "Aenean fermentum. Donec ut mauris eget massa tempor convallis. Nulla neque libero, convallis eget, eleifend luctus, ultricies eu, nibh.",
        "Rating": 1
      }
    ]
  },
  {
    "Id": 32,
    "Title": "Mrs",
    "Description": "Cras mi pede, malesuada in, imperdiet et, commodo vulputate, justo. In blandit ultrices enim. Lorem ipsum dolor sit amet, consectetuer adipiscing elit.",
    "PublicationYear": 569,
    "Director": "Antin Oswal",
    "Country": "Guatemala",
    "Genre": "Sci-Fi",
    "Reviews": [
      {
        "Id": 1,
        "Title": "Mr",
        "Description": "Lorem ipsum dolor sit amet, consectetuer adipiscing elit. Proin risus. Praesent lectus.",
        "Rating": 4
      },
      {
        "Id": 2,
        "Title": "Ms",
        "Description": "Duis bibendum. Morbi non quam nec dui luctus rutrum. Nulla tellus.",
        "Rating": 4
      },
      {
        "Id": 3,
        "Title": "Dr",
        "Description": "Curabitur gravida nisi at nibh. In hac habitasse platea dictumst. Aliquam augue quam, sollicitudin vitae, consectetuer eget, rutrum at, lorem.",
        "Rating": 5
      },
      {
        "Id": 4,
        "Title": "Honorable",
        "Description": "Fusce consequat. Nulla nisl. Nunc nisl.",
        "Rating": 2
      },
      {
        "Id": 5,
        "Title": "Ms",
        "Description": "In congue. Etiam justo. Etiam pretium iaculis justo.",
        "Rating": 2
      },
      {
        "Id": 6,
        "Title": "Rev",
        "Description": "Duis bibendum. Morbi non quam nec dui luctus rutrum. Nulla tellus.",
        "Rating": 2
      },
      {
        "Id": 7,
        "Title": "Dr",
        "Description": "Integer ac leo. Pellentesque ultrices mattis odio. Donec vitae nisi.",
        "Rating": 3
      }
    ]
  },
  {
    "Id": 33,
    "Title": "Mrs",
    "Description": "Proin interdum mauris non ligula pellentesque ultrices. Phasellus id sapien in sapien iaculis congue. Vivamus metus arcu, adipiscing molestie, hendrerit at, vulputate vitae, nisl.",
    "PublicationYear": 96,
    "Director": "Vida Puddle",
    "Country": "Brazil",
    "Genre": "Western",
    "Reviews": [
      {
        "Id": 1,
        "Title": "Ms",
        "Description": "Cum sociis natoque penatibus et magnis dis parturient montes, nascetur ridiculus mus. Vivamus vestibulum sagittis sapien. Cum sociis natoque penatibus et magnis dis parturient montes, nascetur ridiculus mus.",
        "Rating": 4
      },
      {
        "Id": 2,
        "Title": "Honorable",
        "Description": "Nulla ut erat id mauris vulputate elementum. Nullam varius. Nulla facilisi.",
        "Rating": 2
      },
      {
        "Id": 3,
        "Title": "Ms",
        "Description": "In sagittis dui vel nisl. Duis ac nibh. Fusce lacus purus, aliquet at, feugiat non, pretium quis, lectus.",
        "Rating": 2
      },
      {
        "Id": 4,
        "Title": "Dr",
        "Description": "Fusce posuere felis sed lacus. Morbi sem mauris, laoreet ut, rhoncus aliquet, pulvinar sed, nisl. Nunc rhoncus dui vel sem.",
        "Rating": 3
      },
      {
        "Id": 5,
        "Title": "Mr",
        "Description": "Morbi porttitor lorem id ligula. Suspendisse ornare consequat lectus. In est risus, auctor sed, tristique in, tempus sit amet, sem.",
        "Rating": 5
      },
      {
        "Id": 6,
        "Title": "Honorable",
        "Description": "Morbi porttitor lorem id ligula. Suspendisse ornare consequat lectus. In est risus, auctor sed, tristique in, tempus sit amet, sem.",
        "Rating": 4
      },
      {
        "Id": 7,
        "Title": "Rev",
        "Description": "Etiam vel augue. Vestibulum rutrum rutrum neque. Aenean auctor gravida sem.",
        "Rating": 3
      }
    ]
  },
  {
    "Id": 34,
    "Title": "Mr",
    "Description": "Cras non velit nec nisi vulputate nonummy. Maecenas tincidunt lacus at velit. Vivamus vel nulla eget eros elementum pellentesque.",
    "PublicationYear": 730,
    "Director": "Haroun Ebhardt",
    "Country": "Ukraine",
    "Genre": "Sci-Fi",
    "Reviews": [
      {
        "Id": 1,
        "Title": "Mrs",
        "Description": "Pellentesque at nulla. Suspendisse potenti. Cras in purus eu magna vulputate luctus.",
        "Rating": 4
      },
      {
        "Id": 2,
        "Title": "Rev",
        "Description": "Cras non velit nec nisi vulputate nonummy. Maecenas tincidunt lacus at velit. Vivamus vel nulla eget eros elementum pellentesque.",
        "Rating": 3
      },
      {
        "Id": 3,
        "Title": "Dr",
        "Description": "Fusce posuere felis sed lacus. Morbi sem mauris, laoreet ut, rhoncus aliquet, pulvinar sed, nisl. Nunc rhoncus dui vel sem.",
        "Rating": 1
      },
      {
        "Id": 4,
        "Title": "Dr",
        "Description": "Morbi non lectus. Aliquam sit amet diam in magna bibendum imperdiet. Nullam orci pede, venenatis non, sodales sed, tincidunt eu, felis.",
        "Rating": 5
      }
    ]
  },
  {
    "Id": 35,
    "Title": "Dr",
    "Description": "Praesent blandit. Nam nulla. Integer pede justo, lacinia eget, tincidunt eget, tempus vel, pede.",
    "PublicationYear": 1339,
    "Director": "Christyna Audsley",
    "Country": "Philippines",
    "Genre": "Adventure",
    "Reviews": [
      {
        "Id": 1,
        "Title": "Mrs",
        "Description": "In hac habitasse platea dictumst. Morbi vestibulum, velit id pretium iaculis, diam erat fermentum justo, nec condimentum neque sapien placerat ante. Nulla justo.",
        "Rating": 2
      }
    ]
  },
  {
    "Id": 36,
    "Title": "Mr",
    "Description": "Lorem ipsum dolor sit amet, consectetuer adipiscing elit. Proin risus. Praesent lectus.",
    "PublicationYear": 1798,
    "Director": "Richart Abbatini",
    "Country": "China",
    "Genre": "Fantasy",
    "Reviews": [
      {
        "Id": 1,
        "Title": "Ms",
        "Description": "Etiam vel augue. Vestibulum rutrum rutrum neque. Aenean auctor gravida sem.",
        "Rating": 5
      },
      {
        "Id": 2,
        "Title": "Rev",
        "Description": "Praesent blandit. Nam nulla. Integer pede justo, lacinia eget, tincidunt eget, tempus vel, pede.",
        "Rating": 2
      },
      {
        "Id": 3,
        "Title": "Ms",
        "Description": "Suspendisse potenti. In eleifend quam a odio. In hac habitasse platea dictumst.",
        "Rating": 4
      },
      {
        "Id": 4,
        "Title": "Mr",
        "Description": "Nulla ut erat id mauris vulputate elementum. Nullam varius. Nulla facilisi.",
        "Rating": 5
      },
      {
        "Id": 5,
        "Title": "Mrs",
        "Description": "Duis bibendum. Morbi non quam nec dui luctus rutrum. Nulla tellus.",
        "Rating": 3
      },
      {
        "Id": 6,
        "Title": "Honorable",
        "Description": "Suspendisse potenti. In eleifend quam a odio. In hac habitasse platea dictumst.",
        "Rating": 1
      },
      {
        "Id": 7,
        "Title": "Honorable",
        "Description": "Fusce consequat. Nulla nisl. Nunc nisl.",
        "Rating": 2
      }
    ]
  },
  {
    "Id": 37,
    "Title": "Dr",
    "Description": "Sed sagittis. Nam congue, risus semper porta volutpat, quam pede lobortis ligula, sit amet eleifend pede libero quis orci. Nullam molestie nibh in lectus.",
    "PublicationYear": 408,
    "Director": "Iolanthe Lanchbery",
    "Country": "Czech Republic",
    "Genre": "Sci-Fi",
    "Reviews": [
      {
        "Id": 1,
        "Title": "Ms",
        "Description": "Fusce consequat. Nulla nisl. Nunc nisl.",
        "Rating": 4
      },
      {
        "Id": 2,
        "Title": "Dr",
        "Description": "Vestibulum quam sapien, varius ut, blandit non, interdum in, ante. Vestibulum ante ipsum primis in faucibus orci luctus et ultrices posuere cubilia Curae; Duis faucibus accumsan odio. Curabitur convallis.",
        "Rating": 3
      },
      {
        "Id": 3,
        "Title": "Mrs",
        "Description": "In congue. Etiam justo. Etiam pretium iaculis justo.",
        "Rating": 4
      },
      {
        "Id": 4,
        "Title": "Rev",
        "Description": "Etiam vel augue. Vestibulum rutrum rutrum neque. Aenean auctor gravida sem.",
        "Rating": 4
      },
      {
        "Id": 5,
        "Title": "Ms",
        "Description": "In quis justo. Maecenas rhoncus aliquam lacus. Morbi quis tortor id nulla ultrices aliquet.",
        "Rating": 5
      }
    ]
  },
  {
    "Id": 38,
    "Title": "Rev",
    "Description": "Praesent blandit. Nam nulla. Integer pede justo, lacinia eget, tincidunt eget, tempus vel, pede.",
    "PublicationYear": 1072,
    "Director": "Marty Gingell",
    "Country": "China",
    "Genre": "Sci-Fi",
    "Reviews": [
      {
        "Id": 1,
        "Title": "Honorable",
        "Description": "Proin interdum mauris non ligula pellentesque ultrices. Phasellus id sapien in sapien iaculis congue. Vivamus metus arcu, adipiscing molestie, hendrerit at, vulputate vitae, nisl.",
        "Rating": 3
      },
      {
        "Id": 2,
        "Title": "Honorable",
        "Description": "Integer tincidunt ante vel ipsum. Praesent blandit lacinia erat. Vestibulum sed magna at nunc commodo placerat.",
        "Rating": 1
      },
      {
        "Id": 3,
        "Title": "Honorable",
        "Description": "Cum sociis natoque penatibus et magnis dis parturient montes, nascetur ridiculus mus. Vivamus vestibulum sagittis sapien. Cum sociis natoque penatibus et magnis dis parturient montes, nascetur ridiculus mus.",
        "Rating": 2
      },
      {
        "Id": 4,
        "Title": "Mrs",
        "Description": "Duis consequat dui nec nisi volutpat eleifend. Donec ut dolor. Morbi vel lectus in quam fringilla rhoncus.",
        "Rating": 3
      }
    ]
  },
  {
    "Id": 39,
    "Title": "Honorable",
    "Description": "Praesent blandit. Nam nulla. Integer pede justo, lacinia eget, tincidunt eget, tempus vel, pede.",
    "PublicationYear": 1173,
    "Director": "Gordie Menere",
    "Country": "Portugal",
    "Genre": "Action",
    "Reviews": [
      {
        "Id": 1,
        "Title": "Honorable",
        "Description": "Maecenas leo odio, condimentum id, luctus nec, molestie sed, justo. Pellentesque viverra pede ac diam. Cras pellentesque volutpat dui.",
        "Rating": 1
      },
      {
        "Id": 2,
        "Title": "Honorable",
        "Description": "Cras non velit nec nisi vulputate nonummy. Maecenas tincidunt lacus at velit. Vivamus vel nulla eget eros elementum pellentesque.",
        "Rating": 3
      },
      {
        "Id": 3,
        "Title": "Ms",
        "Description": "Mauris enim leo, rhoncus sed, vestibulum sit amet, cursus id, turpis. Integer aliquet, massa id lobortis convallis, tortor risus dapibus augue, vel accumsan tellus nisi eu orci. Mauris lacinia sapien quis libero.",
        "Rating": 1
      }
    ]
  },
  {
    "Id": 40,
    "Title": "Rev",
    "Description": "Integer tincidunt ante vel ipsum. Praesent blandit lacinia erat. Vestibulum sed magna at nunc commodo placerat.",
    "PublicationYear": 278,
    "Director": "Stanislas Georgiev",
    "Country": "China",
    "Genre": "Action",
    "Reviews": [
      {
        "Id": 1,
        "Title": "Honorable",
        "Description": "Proin eu mi. Nulla ac enim. In tempor, turpis nec euismod scelerisque, quam turpis adipiscing lorem, vitae mattis nibh ligula nec sem.",
        "Rating": 1
      },
      {
        "Id": 2,
        "Title": "Rev",
        "Description": "Aenean lectus. Pellentesque eget nunc. Donec quis orci eget orci vehicula condimentum.",
        "Rating": 3
      }
    ]
  },
  {
    "Id": 41,
    "Title": "Honorable",
    "Description": "Mauris enim leo, rhoncus sed, vestibulum sit amet, cursus id, turpis. Integer aliquet, massa id lobortis convallis, tortor risus dapibus augue, vel accumsan tellus nisi eu orci. Mauris lacinia sapien quis libero.",
    "PublicationYear": 1582,
    "Director": "Vivyan McKmurrie",
    "Country": "Indonesia",
    "Genre": "Comedy",
    "Reviews": [
      {
        "Id": 1,
        "Title": "Ms",
        "Description": "Pellentesque at nulla. Suspendisse potenti. Cras in purus eu magna vulputate luctus.",
        "Rating": 4
      },
      {
        "Id": 2,
        "Title": "Mrs",
        "Description": "Duis bibendum, felis sed interdum venenatis, turpis enim blandit mi, in porttitor pede justo eu massa. Donec dapibus. Duis at velit eu est congue elementum.",
        "Rating": 4
      },
      {
        "Id": 3,
        "Title": "Honorable",
        "Description": "Mauris enim leo, rhoncus sed, vestibulum sit amet, cursus id, turpis. Integer aliquet, massa id lobortis convallis, tortor risus dapibus augue, vel accumsan tellus nisi eu orci. Mauris lacinia sapien quis libero.",
        "Rating": 5
      },
      {
        "Id": 4,
        "Title": "Honorable",
        "Description": "Sed sagittis. Nam congue, risus semper porta volutpat, quam pede lobortis ligula, sit amet eleifend pede libero quis orci. Nullam molestie nibh in lectus.",
        "Rating": 5
      },
      {
        "Id": 5,
        "Title": "Dr",
        "Description": "In hac habitasse platea dictumst. Morbi vestibulum, velit id pretium iaculis, diam erat fermentum justo, nec condimentum neque sapien placerat ante. Nulla justo.",
        "Rating": 4
      },
      {
        "Id": 6,
        "Title": "Mrs",
        "Description": "Pellentesque at nulla. Suspendisse potenti. Cras in purus eu magna vulputate luctus.",
        "Rating": 5
      },
      {
        "Id": 7,
        "Title": "Mr",
        "Description": "Phasellus in felis. Donec semper sapien a libero. Nam dui.",
        "Rating": 5
      },
      {
        "Id": 8,
        "Title": "Ms",
        "Description": "In sagittis dui vel nisl. Duis ac nibh. Fusce lacus purus, aliquet at, feugiat non, pretium quis, lectus.",
        "Rating": 3
      }
    ]
  },
  {
    "Id": 42,
    "Title": "Dr",
    "Description": "In hac habitasse platea dictumst. Morbi vestibulum, velit id pretium iaculis, diam erat fermentum justo, nec condimentum neque sapien placerat ante. Nulla justo.",
    "PublicationYear": 288,
    "Director": "Jaquelin Casson",
    "Country": "Philippines",
    "Genre": "Comedy",
    "Reviews": [
      {
        "Id": 1,
        "Title": "Ms",
        "Description": "Vestibulum ac est lacinia nisi venenatis tristique. Fusce congue, diam id ornare imperdiet, sapien urna pretium nisl, ut volutpat sapien arcu sed augue. Aliquam erat volutpat.",
        "Rating": 2
      },
      {
        "Id": 2,
        "Title": "Rev",
        "Description": "Aenean lectus. Pellentesque eget nunc. Donec quis orci eget orci vehicula condimentum.",
        "Rating": 2
      }
    ]
  },
  {
    "Id": 43,
    "Title": "Mrs",
    "Description": "Quisque porta volutpat erat. Quisque erat eros, viverra eget, congue eget, semper rutrum, nulla. Nunc purus.",
    "PublicationYear": 380,
    "Director": "Vivianne McGibbon",
    "Country": "China",
    "Genre": "Fantasy",
    "Reviews": [
      {
        "Id": 1,
        "Title": "Honorable",
        "Description": "Duis aliquam convallis nunc. Proin at turpis a pede posuere nonummy. Integer non velit.",
        "Rating": 5
      },
      {
        "Id": 2,
        "Title": "Mrs",
        "Description": "Duis aliquam convallis nunc. Proin at turpis a pede posuere nonummy. Integer non velit.",
        "Rating": 2
      }
    ]
  },
  {
    "Id": 44,
    "Title": "Rev",
    "Description": "In quis justo. Maecenas rhoncus aliquam lacus. Morbi quis tortor id nulla ultrices aliquet.",
    "PublicationYear": 266,
    "Director": "Ursola Stowe",
    "Country": "Sweden",
    "Genre": "Comedy",
    "Reviews": [
      {
        "Id": 1,
        "Title": "Ms",
        "Description": "Sed ante. Vivamus tortor. Duis mattis egestas metus.",
        "Rating": 2
      },
      {
        "Id": 2,
        "Title": "Honorable",
        "Description": "Duis bibendum. Morbi non quam nec dui luctus rutrum. Nulla tellus.",
        "Rating": 2
      },
      {
        "Id": 3,
        "Title": "Mrs",
        "Description": "Donec diam neque, vestibulum eget, vulputate ut, ultrices vel, augue. Vestibulum ante ipsum primis in faucibus orci luctus et ultrices posuere cubilia Curae; Donec pharetra, magna vestibulum aliquet ultrices, erat tortor sollicitudin mi, sit amet lobortis sapien sapien non mi. Integer ac neque.",
        "Rating": 4
      }
    ]
  },
  {
    "Id": 45,
    "Title": "Rev",
    "Description": "Proin leo odio, porttitor id, consequat in, consequat ut, nulla. Sed accumsan felis. Ut at dolor quis odio consequat varius.",
    "PublicationYear": 328,
    "Director": "Lester Clell",
    "Country": "Japan",
    "Genre": "Sci-Fi",
    "Reviews": [
      {
        "Id": 1,
        "Title": "Rev",
        "Description": "In sagittis dui vel nisl. Duis ac nibh. Fusce lacus purus, aliquet at, feugiat non, pretium quis, lectus.",
        "Rating": 2
      },
      {
        "Id": 2,
        "Title": "Mr",
        "Description": "In hac habitasse platea dictumst. Etiam faucibus cursus urna. Ut tellus.",
        "Rating": 4
      },
      {
        "Id": 3,
        "Title": "Mr",
        "Description": "In sagittis dui vel nisl. Duis ac nibh. Fusce lacus purus, aliquet at, feugiat non, pretium quis, lectus.",
        "Rating": 3
      },
      {
        "Id": 4,
        "Title": "Mrs",
        "Description": "Duis bibendum. Morbi non quam nec dui luctus rutrum. Nulla tellus.",
        "Rating": 5
      },
      {
        "Id": 5,
        "Title": "Rev",
        "Description": "Curabitur in libero ut massa volutpat convallis. Morbi odio odio, elementum eu, interdum eu, tincidunt in, leo. Maecenas pulvinar lobortis est.",
        "Rating": 4
      },
      {
        "Id": 6,
        "Title": "Mrs",
        "Description": "Duis consequat dui nec nisi volutpat eleifend. Donec ut dolor. Morbi vel lectus in quam fringilla rhoncus.",
        "Rating": 4
      },
      {
        "Id": 7,
        "Title": "Mrs",
        "Description": "Curabitur in libero ut massa volutpat convallis. Morbi odio odio, elementum eu, interdum eu, tincidunt in, leo. Maecenas pulvinar lobortis est.",
        "Rating": 4
      },
      {
        "Id": 8,
        "Title": "Rev",
        "Description": "Fusce posuere felis sed lacus. Morbi sem mauris, laoreet ut, rhoncus aliquet, pulvinar sed, nisl. Nunc rhoncus dui vel sem.",
        "Rating": 4
      },
      {
        "Id": 9,
        "Title": "Ms",
        "Description": "Nulla ut erat id mauris vulputate elementum. Nullam varius. Nulla facilisi.",
        "Rating": 3
      },
      {
        "Id": 10,
        "Title": "Mrs",
        "Description": "Duis bibendum. Morbi non quam nec dui luctus rutrum. Nulla tellus.",
        "Rating": 1
      }
    ]
  },
  {
    "Id": 46,
    "Title": "Mrs",
    "Description": "Vestibulum quam sapien, varius ut, blandit non, interdum in, ante. Vestibulum ante ipsum primis in faucibus orci luctus et ultrices posuere cubilia Curae; Duis faucibus accumsan odio. Curabitur convallis.",
    "PublicationYear": 67,
    "Director": "Karie Gatchel",
    "Country": "Philippines",
    "Genre": "Mystery",
    "Reviews": [
      {
        "Id": 1,
        "Title": "Mrs",
        "Description": "Integer tincidunt ante vel ipsum. Praesent blandit lacinia erat. Vestibulum sed magna at nunc commodo placerat.",
        "Rating": 2
      },
      {
        "Id": 2,
        "Title": "Dr",
        "Description": "Curabitur gravida nisi at nibh. In hac habitasse platea dictumst. Aliquam augue quam, sollicitudin vitae, consectetuer eget, rutrum at, lorem.",
        "Rating": 1
      },
      {
        "Id": 3,
        "Title": "Honorable",
        "Description": "In quis justo. Maecenas rhoncus aliquam lacus. Morbi quis tortor id nulla ultrices aliquet.",
        "Rating": 5
      },
      {
        "Id": 4,
        "Title": "Ms",
        "Description": "Nam ultrices, libero non mattis pulvinar, nulla pede ullamcorper augue, a suscipit nulla elit ac nulla. Sed vel enim sit amet nunc viverra dapibus. Nulla suscipit ligula in lacus.",
        "Rating": 5
      },
      {
        "Id": 5,
        "Title": "Rev",
        "Description": "Quisque id justo sit amet sapien dignissim vestibulum. Vestibulum ante ipsum primis in faucibus orci luctus et ultrices posuere cubilia Curae; Nulla dapibus dolor vel est. Donec odio justo, sollicitudin ut, suscipit a, feugiat et, eros.",
        "Rating": 2
      }
    ]
  },
  {
    "Id": 47,
    "Title": "Ms",
    "Description": "Proin eu mi. Nulla ac enim. In tempor, turpis nec euismod scelerisque, quam turpis adipiscing lorem, vitae mattis nibh ligula nec sem.",
    "PublicationYear": 813,
    "Director": "Hilary McKeeman",
    "Country": "Czech Republic",
    "Genre": "Romance",
    "Reviews": [
      {
        "Id": 1,
        "Title": "Dr",
        "Description": "Aenean lectus. Pellentesque eget nunc. Donec quis orci eget orci vehicula condimentum.",
        "Rating": 2
      },
      {
        "Id": 2,
        "Title": "Rev",
        "Description": "Cum sociis natoque penatibus et magnis dis parturient montes, nascetur ridiculus mus. Vivamus vestibulum sagittis sapien. Cum sociis natoque penatibus et magnis dis parturient montes, nascetur ridiculus mus.",
        "Rating": 4
      },
      {
        "Id": 3,
        "Title": "Dr",
        "Description": "Maecenas tristique, est et tempus semper, est quam pharetra magna, ac consequat metus sapien ut nunc. Vestibulum ante ipsum primis in faucibus orci luctus et ultrices posuere cubilia Curae; Mauris viverra diam vitae quam. Suspendisse potenti.",
        "Rating": 4
      }
    ]
  },
  {
    "Id": 48,
    "Title": "Dr",
    "Description": "Proin eu mi. Nulla ac enim. In tempor, turpis nec euismod scelerisque, quam turpis adipiscing lorem, vitae mattis nibh ligula nec sem.",
    "PublicationYear": 610,
    "Director": "Arv Belson",
    "Country": "Russia",
    "Genre": "Horror",
    "Reviews": [
      {
        "Id": 1,
        "Title": "Honorable",
        "Description": "Mauris enim leo, rhoncus sed, vestibulum sit amet, cursus id, turpis. Integer aliquet, massa id lobortis convallis, tortor risus dapibus augue, vel accumsan tellus nisi eu orci. Mauris lacinia sapien quis libero.",
        "Rating": 1
      },
      {
        "Id": 2,
        "Title": "Mrs",
        "Description": "Maecenas leo odio, condimentum id, luctus nec, molestie sed, justo. Pellentesque viverra pede ac diam. Cras pellentesque volutpat dui.",
        "Rating": 4
      },
      {
        "Id": 3,
        "Title": "Mr",
        "Description": "Proin interdum mauris non ligula pellentesque ultrices. Phasellus id sapien in sapien iaculis congue. Vivamus metus arcu, adipiscing molestie, hendrerit at, vulputate vitae, nisl.",
        "Rating": 3
      },
      {
        "Id": 4,
        "Title": "Rev",
        "Description": "Proin leo odio, porttitor id, consequat in, consequat ut, nulla. Sed accumsan felis. Ut at dolor quis odio consequat varius.",
        "Rating": 5
      },
      {
        "Id": 5,
        "Title": "Honorable",
        "Description": "Proin interdum mauris non ligula pellentesque ultrices. Phasellus id sapien in sapien iaculis congue. Vivamus metus arcu, adipiscing molestie, hendrerit at, vulputate vitae, nisl.",
        "Rating": 1
      },
      {
        "Id": 6,
        "Title": "Mrs",
        "Description": "Proin eu mi. Nulla ac enim. In tempor, turpis nec euismod scelerisque, quam turpis adipiscing lorem, vitae mattis nibh ligula nec sem.",
        "Rating": 2
      }
    ]
  },
  {
    "Id": 49,
    "Title": "Honorable",
    "Description": "Proin leo odio, porttitor id, consequat in, consequat ut, nulla. Sed accumsan felis. Ut at dolor quis odio consequat varius.",
    "PublicationYear": 1839,
    "Director": "Fan Benedick",
    "Country": "Spain",
    "Genre": "Thriller",
    "Reviews": [
      {
        "Id": 1,
        "Title": "Mrs",
        "Description": "In quis justo. Maecenas rhoncus aliquam lacus. Morbi quis tortor id nulla ultrices aliquet.",
        "Rating": 5
      },
      {
        "Id": 2,
        "Title": "Ms",
        "Description": "Praesent blandit. Nam nulla. Integer pede justo, lacinia eget, tincidunt eget, tempus vel, pede.",
        "Rating": 5
      }
    ]
  },
  {
    "Id": 50,
    "Title": "Honorable",
    "Description": "Quisque porta volutpat erat. Quisque erat eros, viverra eget, congue eget, semper rutrum, nulla. Nunc purus.",
    "PublicationYear": 1751,
    "Director": "Alon Riches",
    "Country": "Iran",
    "Genre": "Horror",
    "Reviews": [
      {
        "Id": 1,
        "Title": "Honorable",
        "Description": "Aliquam quis turpis eget elit sodales scelerisque. Mauris sit amet eros. Suspendisse accumsan tortor quis turpis.",
        "Rating": 1
      },
      {
        "Id": 2,
        "Title": "Ms",
        "Description": "Phasellus sit amet erat. Nulla tempus. Vivamus in felis eu sapien cursus vestibulum.",
        "Rating": 4
      },
      {
        "Id": 3,
        "Title": "Rev",
        "Description": "Quisque porta volutpat erat. Quisque erat eros, viverra eget, congue eget, semper rutrum, nulla. Nunc purus.",
        "Rating": 1
      },
      {
        "Id": 4,
        "Title": "Honorable",
        "Description": "Proin interdum mauris non ligula pellentesque ultrices. Phasellus id sapien in sapien iaculis congue. Vivamus metus arcu, adipiscing molestie, hendrerit at, vulputate vitae, nisl.",
        "Rating": 4
      }
    ]
  }
]